location,duration,dayAhead,price,acriss,carName,vendor
Balice,2,2,158.1,EDMR,Ford Fiesta,Express
Balice,2,2,165.76,MBMR,Fiat 500,Sixt
Balice,2,2,166.56,MBMR,Fiat 500,Keddy By Europcar
Balice,2,2,167.13,MDMR,Toyota Aygo,Alamo
Balice,2,2,168.25,CDMR,Opel Astra,Express
Balice,2,2,170.54,EDMR,Toyota Yaris,Alamo
Balice,2,2,171.05,ECMR,Opel Corsa,Keddy By Europcar
Balice,2,2,173.63,MDMR,Toyota Aygo,Enterprise
Balice,2,2,175.62,EDMR,Volkswagen Polo,Global Rent a Car
Balice,2,2,177.2,EDMR,Toyota Yaris,Enterprise
Balice,2,2,180.03,EDMR,Opel Corsa,Keddy By Europcar
Balice,2,2,184.01,CDMR,Ford Focus,Thrifty
Balice,2,2,193.51,EDMR,Seat Ibiza,Car Net
Balice,2,2,193.51,MBMR,Kia Picanto,Car Net
Balice,2,2,197.99,CMMR,Renault Captur,Keddy By Europcar
Balice,2,2,197.99,CDMR,Ford Focus,Keddy By Europcar
Balice,2,2,197.99,MDAR,Smart ForFour,Car Net
Balice,2,2,199.16,CFMR,Toyota C-HR,Green Motion
Balice,2,2,202.6,MBMR,Fiat 500,Europcar
Balice,2,2,203.08,CDMR,Seat Leon,Car Net
Balice,2,2,206.98,CWMR,Opel Astra Estate,Car Net
Balice,2,2,208.23,ECMR,Opel Corsa,Europcar
Balice,2,2,211.45,CWMR,Ford Focus Estate,Keddy By Europcar
Balice,2,2,214.42,MBMR,Fiat 500,Green Motion
Balice,2,2,214.94,CXMR,Seat Leon,Express
Balice,2,2,219.48,EDMR,Citroen C3,Europcar
Balice,2,2,221.04,EDMR,Volkswagen Polo,Green Motion
Balice,2,2,225.05,CDAR,Opel Astra,Keddy By Europcar
Balice,2,2,227.85,CDMR,Volkswagen Golf,Green Motion
Balice,2,2,230.54,IDMR,Toyota Corolla,Car Net
Balice,2,2,234.9,IDMR,Volkswagen Jetta,Green Motion
Balice,2,2,236.36,EXMR,Renault Clio,Europcar
Balice,2,2,241.52,CDAR,Peugeot 308,Car Net
Balice,2,2,242.57,EDMR,Skoda Fabia,Sixt
Balice,2,2,247.64,CDMR,Opel Astra,Europcar
Balice,2,2,254.36,SDMR,Volkswagen Passat,Express
Balice,2,2,259.21,CWMR,Toyota Auris Estate,Europcar
Balice,2,2,261.84,SDMR,Volkswagen Passat,Green Motion
Balice,2,2,267.08,SDAR,Renault Talisman,Express
Balice,2,2,267.08,FDMR,Infiniti Q50,Express
Balice,2,2,274.2,IVMR,Opel Zafira,Express
Balice,2,2,277.69,CDMR,Ford Focus,Sixt
Balice,2,2,280.33,CDMR,Toyota Auris,Alamo
Balice,2,2,287.01,CDAR,Renault Megane,Europcar
Balice,2,2,291.21,CDMR,Toyota Auris,Enterprise
Balice,2,2,292.56,MBMR,Fiat 500,Budget
Balice,2,2,301.89,IFMR,Nissan Qashqai,Car Net
Balice,2,2,309.18,EDMR,Kia Rio,Budget
Balice,2,2,325.2,CDAR,Toyota Auris,Alamo
Balice,2,2,329.33,IFAR,Volkswagen Tiguan,Car Net
Balice,2,2,329.33,SDMR,Mazda 6,Car Net
Balice,2,2,330.68,IFMR,Nissan Qashqai,Express
Balice,2,2,330.68,CVMR,Citroen Berlingo,Express
Balice,2,2,334.79,EDAR,Volkswagen Polo,Green Motion
Balice,2,2,337.78,CDAR,Toyota Auris,Enterprise
Balice,2,2,338.89,SWMR,Mazda 6 Estate,Car Net
Balice,2,2,340.3,IDAR,Toyota Avensis,Car Net
Balice,2,2,342.91,CDMR,Volkswagen Golf,Rentis
Balice,2,2,343.42,CDMR,Ford Focus,Budget
Balice,2,2,345.17,CDAR,Volkswagen Golf,Green Motion
Balice,2,2,361.06,CDAR,Opel Astra,Sixt
Balice,2,2,365.86,CWMR,Toyota Auris Estate,Alamo
Balice,2,2,365.88,MDMR,Smart ForFour,Global Rent a Car
Balice,2,2,367.42,IDMR,Toyota Corolla,Sixt
Balice,2,2,376.55,SWAR,Skoda Superb Estate,Car Net
Balice,2,2,380.04,CWMR,Toyota Auris Estate,Enterprise
Balice,2,2,395.28,CWMR,Fiat Tipo Estate,Budget
Balice,2,2,411.32,FVMR,Mercedes-Benz Vito,Express
Balice,2,2,411.66,SFAR,Nissan X-Trail,Car Net
Balice,2,2,414.89,CDMR,Volkswagen Golf,Global Rent a Car
Balice,2,2,419.05,SFMR,Toyota Rav4,Green Motion
Balice,2,2,420.3,IDAR,Volkswagen Jetta,Green Motion
Balice,2,2,420.42,SDAR,Volkswagen Passat,Green Motion
Balice,2,2,423.01,IDMR,Toyota Avensis,Alamo
Balice,2,2,428.67,CWMR,Ford Focus Estate,Sixt
Balice,2,2,430.55,ICAR,BMW 1 Series,Sixt
Balice,2,2,443.56,IDMR,Toyota Avensis,Enterprise
Balice,2,2,445.84,IDMR,Toyota Corolla,Rentis
Balice,2,2,460.13,MDMR,Toyota Aygo,Rentis
Balice,2,2,463.4,MDAR,Smart ForFour,Global Rent a Car
Balice,2,2,473.76,IDAR,Toyota Avensis,Alamo
Balice,2,2,479.01,CDAR,Opel Astra,Budget
Balice,2,2,480.11,CDAR,Volkswagen Golf,Rentis
Balice,2,2,480.11,IDAR,Toyota Corolla,Rentis
Balice,2,2,486.3,EDMR,Toyota Yaris,Rentis
Balice,2,2,486.76,IWMR,Skoda Octavia Estate,Sixt
Balice,2,2,490.31,EWMR,Renault Clio Estate,Global Rent a Car
Balice,2,2,496.78,IDAR,Toyota Avensis,Enterprise
Balice,2,2,497.91,IDMR,Volkswagen Jetta,Global Rent a Car
Balice,2,2,502.4,EWMR,Skoda Fabia Estate,Rentis
Balice,2,2,506.78,CWMR,Volkswagen Golf Estate,Global Rent a Car
Balice,2,2,521.56,SDMR,Volkswagen Passat GPS,Sixt
Balice,2,2,522.58,CDMR,Ford Focus,Hertz
Balice,2,2,536.68,IWMR,Kia Optima Estate,Sixt
Balice,2,2,541.05,CWMR,Toyota Auris Estate,Rentis
Balice,2,2,547.63,SDAR,Volkswagen Passat,Sixt
Balice,2,2,562.94,IFMR,Kia Sportage,Sixt
Balice,2,2,591.59,EDAR,Skoda Fabia,Rentis
Balice,2,2,607.98,IFMR,Nissan Qashqai,Rentis
Balice,2,2,652.19,SFMR,Volkswagen Tiguan,Sixt
Balice,2,2,662.84,CFAR,Toyota C-HR,Rentis
Balice,2,2,676.15,EDAR,Kia Rio,Global Rent a Car
Balice,2,2,684.79,IFAR,BMW X1,Sixt
Balice,2,2,719.32,CDAR,Kia Cee'd,Hertz
Balice,2,2,743,SFMR,Toyota Rav4,Rentis
Balice,2,2,756.32,SDMR,Toyota Avensis,Budget
Balice,2,2,762.35,IXAR,Toyota Prius,Rentis
Balice,2,2,791.4,CDAR,Volkswagen Golf,Global Rent a Car
Balice,2,2,792.99,CWMR,Volkswagen Golf Estate,Green Motion
Balice,2,2,792.99,CWAR,Volkswagen Golf Estate,Green Motion
Balice,2,2,794.09,IDAR,Toyota C-HR,Budget
Balice,2,2,798.71,IVMR,Volkswagen Touran,Rentis
Balice,2,2,798.71,IWMR,Skoda Octavia Estate,Rentis
Balice,2,2,823.33,PFAR,Mercedes-Benz GLC,Car Net
Balice,2,2,852.73,IDMR,Toyota Avensis,Hertz
Balice,2,2,907.39,IWMR,Toyota Avensis Estate,Budget
Balice,2,2,927.51,FVMR,Renault Trafic,Rentis
Balice,2,2,933.08,SWMR,Volkswagen Passat Estate,Global Rent a Car
Balice,2,2,969.56,SVAR,Seat Alhambra,Hertz
Balice,2,2,992.24,SWAR,Volkswagen Passat Estate,Global Rent a Car
Balice,2,2,1038.11,SDMR,Kia Optima,Global Rent a Car
Balice,2,2,1067.67,IDAR,Toyota Corolla,Global Rent a Car
Balice,2,2,1132.73,SDAR,Opel Insignia,Budget
Balice,2,2,1144.41,CVMR,Citroen C4 Picasso,Green Motion
Balice,2,2,1190.05,IFMR,Kia Sportage,Hertz
Balice,2,2,1208.05,SDAR,Volkswagen Passat,Global Rent a Car
Balice,2,2,1347.03,PDAR,Mercedes-Benz C-Class,Hertz
Balice,2,2,1524.83,IFAR,BMW X1,Hertz
Balice,2,2,1536.43,SVAR,Seat Alhambra,Budget
Balice,2,2,1631.29,IWMR,Skoda Octavia Estate,Green Motion
Balice,2,2,1971.71,PDAD,BMW 3 Series,Rentis
Balice,2,2,2015.64,CWAR,Toyota Auris Estate,Global Rent a Car
Balice,2,2,2654.11,IVMR,Volkswagen Touran,Global Rent a Car
Balice,2,2,2690.59,PDAR,BMW 3 Series,Global Rent a Car
Balice,2,2,2720.94,LDAR,Mercedes-Benz E-Class,Global Rent a Car
Balice,2,2,3011.75,SVMR,Ford Tourneo Connect,Global Rent a Car
Balice,2,2,3250.92,LWAR,Mercedes-Benz E-Class Estate,Global Rent a Car
Balice,2,2,3395.41,CFAR,Toyota C-HR,Green Motion
Balice,2,2,3943.37,LDAD,BMW 5 Series,Rentis
Balice,2,2,3943.37,PFAR,Audi Q5,Rentis
Balice,2,2,4117.92,FVMR,Renault Trafic,Global Rent a Car
Balice,2,2,4787.71,FVAR,Citroen SpaceTourer,Global Rent a Car
Balice,2,2,7701.42,IVAR,Volkswagen Touran,Global Rent a Car
Balice,2,2,11559.58,LDMR,BMW 5 Series,Green Motion
Balice,2,2,11559.58,LDAR,BMW 5 Series,Green Motion
Balice,2,2,101.27,MBMR,Fiat 500,Green Motion
Balice,2,2,102.41,EDMR,Volkswagen Polo,Global Rent a Car
Balice,2,2,106.04,EDMR,Volkswagen Polo,Green Motion
Balice,2,2,240.55,MBMR,Fiat 500,
Balice,2,2,259.5,EDMR,Ford Fiesta,Express
Balice,2,2,259.5,CXMR,Seat Leon,Express
Balice,2,2,285.47,CDMR,Opel Astra,Express
Balice,2,2,298.41,EDMR,Seat Ibiza,Panek
Balice,2,2,308.01,CDMR,Ford Focus,Thrifty
Balice,2,2,322.29,IDMR,Toyota Corolla,Panek
Balice,2,2,322.78,MBMR,Fiat 500,Sixt
Balice,2,2,324.84,MBMR,Fiat 500,Keddy By Europcar
Balice,2,2,335.99,ECMR,Opel Corsa,Keddy By Europcar
Balice,2,2,340.96,MDMR,Toyota Aygo,Alamo
Balice,2,2,347.85,EDMR,Toyota Yaris,Alamo
Balice,2,2,352.05,CDMR,Volkswagen Golf,Green Motion
Balice,2,2,353.44,EDMR,Skoda Fabia,
Balice,2,2,354.27,MDMR,Toyota Aygo,Enterprise
Balice,2,2,358.43,EDMR,Opel Corsa,Keddy By Europcar
Balice,2,2,358.86,EDAR,Volkswagen Polo,Green Motion
Balice,2,2,361.54,EDMR,Toyota Yaris,Enterprise
Balice,2,2,362.89,IDMR,Volkswagen Jetta,Green Motion
Balice,2,2,363.31,SDMR,Volkswagen Passat,Express
Balice,2,2,369.95,CDAR,Volkswagen Golf,Green Motion
Balice,2,2,374.08,SDMR,Volkswagen Passat,Green Motion
Balice,2,2,374.33,IWMR,Skoda Octavia Estate,Panek
Balice,2,2,381.39,IDAR,Volkswagen Jetta,Green Motion
Balice,2,2,381.95,CDAR,Toyota Corolla,Panek
Balice,2,2,391.99,EDMR,Seat Ibiza,Car Net
Balice,2,2,391.99,MBMR,Kia Picanto,Car Net
Balice,2,2,403.18,MDAR,Smart ForFour,Car Net
Balice,2,2,403.18,CMMR,Renault Captur,Keddy By Europcar
Balice,2,2,403.18,CDMR,Ford Focus,Keddy By Europcar
Balice,2,2,413.39,MBMR,Fiat 500,Europcar
Balice,2,2,414.38,CDMR,Seat Leon,Car Net
Balice,2,2,417.08,CWMR,Opel Astra Estate,Car Net
Balice,2,2,424.89,ECMR,Opel Corsa,Europcar
Balice,2,2,428.1,CWMR,Ford Focus Estate,Keddy By Europcar
Balice,2,2,429.71,IDAR,Opel Insignia,Panek
Balice,2,2,436.27,CDMR,Ford Focus,
Balice,2,2,447.89,EDMR,Citroen C3,Europcar
Balice,2,2,453.59,IFMR,Nissan Qashqai,Panek
Balice,2,2,454.75,CFMR,Toyota C-HR,Green Motion
Balice,2,2,457.77,IVMR,Opel Zafira,Express
Balice,2,2,458.23,CDMR,Volkswagen Golf,Global Rent a Car
Balice,2,2,459.12,CDAR,Opel Astra,Keddy By Europcar
Balice,2,2,459.18,IDMR,Toyota Corolla,Car Net
Balice,2,2,467.11,SDAR,Renault Talisman,Express
Balice,2,2,470.24,MDMR,Smart ForFour,Global Rent a Car
Balice,2,2,482.35,EXMR,Renault Clio,Europcar
Balice,2,2,486.12,CDMR,Toyota Auris,Alamo
Balice,2,2,492.78,CDAR,Peugeot 308,Car Net
Balice,2,2,493.05,FDMR,Infiniti Q50,Express
Balice,2,2,494.95,EDMR,Skoda Fabia,Sixt
Balice,2,2,504.97,CDMR,Toyota Auris,Enterprise
Balice,2,2,505.19,CDMR,Opel Astra,Europcar
Balice,2,2,519.02,IFMR,Nissan Qashqai,Express
Balice,2,2,519.02,CVMR,Citroen Berlingo,Express
Balice,2,2,528.91,CWMR,Toyota Auris Estate,Europcar
Balice,2,2,562.16,IDMR,Toyota Corolla,
Balice,2,2,563.93,CDAR,Toyota Auris,Alamo
Balice,2,2,566.58,CDMR,Ford Focus,Sixt
Balice,2,2,582.39,IFMR,Nissan Qashqai,Car Net
Balice,2,2,584.13,MBMR,Fiat 500,Budget
Balice,2,2,585.58,CDAR,Renault Megane,Europcar
Balice,2,2,585.94,CDAR,Toyota Auris,Enterprise
Balice,2,2,599.17,CDAR,Opel Astra,
Balice,2,2,618.37,EDMR,Kia Rio,Budget
Balice,2,2,623.37,CXMR,Volkswagen Golf,
Balice,2,2,643.68,MDMR,Toyota Aygo,Rentis
Balice,2,2,660.77,IFAR,Volkswagen Tiguan,Car Net
Balice,2,2,670.62,EDMR,Toyota Yaris,Rentis
Balice,2,2,671.98,SDMR,Mazda 6,Car Net
Balice,2,2,675.67,ICAR,BMW 1 Series,
Balice,2,2,676.35,CDMR,Volkswagen Golf,Rentis
Balice,2,2,686.36,EWMR,Renault Clio Estate,Global Rent a Car
Balice,2,2,686.64,FVMR,Mercedes-Benz Vito,Express
Balice,2,2,687.85,CDMR,Ford Focus,Budget
Balice,2,2,688.42,CCAR,Volkswagen Golf,
Balice,2,2,691.46,SWMR,Mazda 6 Estate,Car Net
Balice,2,2,694.39,IDAR,Toyota Avensis,Car Net
Balice,2,2,709.65,EWMR,Skoda Fabia Estate,Rentis
Balice,2,2,720.87,CWMR,Volkswagen Golf Estate,Global Rent a Car
Balice,2,2,722.97,CDAR,Volkswagen Golf,Rentis
Balice,2,2,722.97,IDAR,Toyota Corolla,Rentis
Balice,2,2,727.92,IDMR,Volkswagen Jetta,Global Rent a Car
Balice,2,2,730.18,CWMR,Ford Focus Estate,
Balice,2,2,736.69,CDAR,Opel Astra,Sixt
Balice,2,2,746.34,SWAR,Skoda Superb Estate,Car Net
Balice,2,2,746.46,CWMR,Toyota Auris Estate,Alamo
Balice,2,2,749.64,IDMR,Toyota Corolla,Sixt
Balice,2,2,775.43,CWMR,Toyota Auris Estate,Enterprise
Balice,2,2,775.87,PDAR,Volvo S90,Panek
Balice,2,2,775.87,SFAR,Mercedes-Benz GLC,Panek
Balice,2,2,790.58,CWMR,Fiat Tipo Estate,Budget
Balice,2,2,807,IWMR,Skoda Octavia Estate,
Balice,2,2,814.75,CWMR,Toyota Auris Estate,Rentis
Balice,2,2,831.02,MDAR,Smart ForFour,Global Rent a Car
Balice,2,2,839.97,SFAR,Nissan X-Trail,Car Net
Balice,2,2,851.33,SDMR,Volkswagen Passat,
Balice,2,2,854.45,IFMR,Nissan Qashqai,Rentis
Balice,2,2,874.64,CWMR,Ford Focus Estate,Sixt
Balice,2,2,877.33,FVMR,Renault Trafic,Panek
Balice,2,2,878.45,ICAR,BMW 1 Series,Sixt
Balice,2,2,879.14,IDMR,Toyota Corolla,Rentis
Balice,2,2,888.38,CDMR,Ford Focus,Hertz
Balice,2,2,893.89,SDAR,Volkswagen Passat,
Balice,2,2,902.41,SDAR,Volkswagen Passat,Green Motion
Balice,2,2,920.57,SWAR,Volkswagen Passat Estate,
Balice,2,2,945.96,IFMR,Audi Q2,
Balice,2,2,957.04,CDAR,Opel Astra,Budget
Balice,2,2,993.18,IWMR,Skoda Octavia Estate,Sixt
Balice,2,2,1064.18,SDMR,Volkswagen Passat GPS,Sixt
Balice,2,2,1072.74,EDAR,Skoda Fabia,Rentis
Balice,2,2,1089.54,IDMR,Toyota Avensis,Alamo
Balice,2,2,1094.97,IWMR,Kia Optima Estate,Sixt
Balice,2,2,1097.06,IDMR,Toyota Avensis,Enterprise
Balice,2,2,1105.51,SFMR,Toyota Rav4,Green Motion
Balice,2,2,1117.32,SDAR,Volkswagen Passat,Sixt
Balice,2,2,1139.53,SFMR,Volkswagen Tiguan,
Balice,2,2,1148.57,IFMR,Kia Sportage,Sixt
Balice,2,2,1150.63,SFAR,Volvo XC40,
Balice,2,2,1169.76,FVMR,Seat Alhambra,Panek
Balice,2,2,1207.85,EDAR,Kia Rio,Global Rent a Car
Balice,2,2,1212.73,CFAR,Toyota C-HR,Rentis
Balice,2,2,1220.31,IDAR,Toyota Avensis,Alamo
Balice,2,2,1222.84,CDAR,Kia Cee'd,Hertz
Balice,2,2,1228.79,IDAR,Toyota Avensis,Enterprise
Balice,2,2,1330.74,SFMR,Volkswagen Tiguan,Sixt
Balice,2,2,1394.61,IXAR,Toyota Prius,Rentis
Balice,2,2,1397.25,IFAR,BMW X1,Sixt
Balice,2,2,1399.32,SFMR,Toyota Rav4,Rentis
Balice,2,2,1413.24,CDAR,Volkswagen Golf,Global Rent a Car
Balice,2,2,1445.67,FVMR,Renault Trafic,Rentis
Balice,2,2,1449.63,IDMR,Toyota Avensis,Hertz
Balice,2,2,1471.82,IVMR,Volkswagen Touran,Rentis
Balice,2,2,1471.82,IWMR,Skoda Octavia Estate,Rentis
Balice,2,2,1512.67,SDMR,Toyota Avensis,Budget
Balice,2,2,1541.83,IDAR,Toyota Corolla,Global Rent a Car
Balice,2,2,1588.2,IDAR,Toyota C-HR,Budget
Balice,2,2,1618.02,CWMR,Volkswagen Golf Estate,Green Motion
Balice,2,2,1618.02,CWAR,Volkswagen Golf Estate,Green Motion
Balice,2,2,1634.89,SDMR,Kia Optima,Global Rent a Car
Balice,2,2,1648.25,SVAR,Seat Alhambra,Hertz
Balice,2,2,1679.93,PFAR,Mercedes-Benz GLC,Car Net
Balice,2,2,1814.8,IWMR,Toyota Avensis Estate,Budget
Balice,2,2,2023.08,IFMR,Kia Sportage,Hertz
Balice,2,2,2264.47,SDAR,Opel Insignia,Budget
Balice,2,2,2289.96,PDAR,Mercedes-Benz C-Class,Hertz
Balice,2,2,2335.04,CVMR,Citroen C4 Picasso,Green Motion
Balice,2,2,2592.23,IFAR,BMW X1,Hertz
Balice,2,2,2773.72,IWMR,Skoda Octavia Estate,Green Motion
Balice,2,2,3017.26,CWAR,Toyota Auris Estate,Global Rent a Car
Balice,2,2,3073.85,SVAR,Seat Alhambra,Budget
Balice,2,2,3157.28,IVMR,Volkswagen Touran,Global Rent a Car
Balice,2,2,3620.91,PDAD,BMW 3 Series,Rentis
Balice,2,2,4208.26,PDAR,BMW 3 Series,Global Rent a Car
Balice,2,2,4265.94,LDAR,Mercedes-Benz E-Class,Global Rent a Car
Balice,2,2,5114.22,LWAR,Mercedes-Benz E-Class Estate,Global Rent a Car
Balice,2,2,5334.62,SVMR,Ford Tourneo Connect,Global Rent a Car
Balice,2,2,5498.27,IVAR,Volkswagen Touran,Global Rent a Car
Balice,2,2,6212.04,CFAR,Toyota C-HR,Green Motion
Balice,2,2,6584.21,FVMR,Renault Trafic,Global Rent a Car
Balice,2,2,7241.45,LDAD,BMW 5 Series,Rentis
Balice,2,2,7241.45,PFAR,Audi Q5,Rentis
Balice,2,2,7669.59,FVAR,Citroen SpaceTourer,Global Rent a Car
Balice,2,2,17689.65,LDMR,BMW 5 Series,Green Motion
Balice,2,2,17689.65,LDAR,BMW 5 Series,Green Motion
Balice,2,2,128.17,MBMR,Fiat 500,
Balice,2,2,157.35,EDMR,Ford Fiesta,Express
Balice,2,2,164.95,MBMR,Fiat 500,Sixt
Balice,2,2,165.75,MBMR,Fiat 500,Keddy By Europcar
Balice,2,2,167.45,CDMR,Opel Astra,Express
Balice,2,2,169.3,MDMR,Toyota Aygo,Enterprise
Balice,2,2,170.22,ECMR,Opel Corsa,Keddy By Europcar
Balice,2,2,171.16,MDMR,Toyota Aygo,Alamo
Balice,2,2,172.78,EDMR,Toyota Yaris,Enterprise
Balice,2,2,173.8,EDMR,Volkswagen Polo,Global Rent a Car
Balice,2,2,174.66,EDMR,Toyota Yaris,Alamo
Balice,2,2,177.19,EDMR,Skoda Fabia,
Balice,2,2,179.16,EDMR,Opel Corsa,Keddy By Europcar
Balice,2,2,183.12,CDMR,Ford Focus,Thrifty
Balice,2,2,192.56,EDMR,Seat Ibiza,Car Net
Balice,2,2,192.56,MBMR,Kia Picanto,Car Net
Balice,2,2,194.2,CFMR,Toyota C-HR,Green Motion
Balice,2,2,197.04,CMMR,Renault Captur,Keddy By Europcar
Balice,2,2,197.04,CDMR,Ford Focus,Keddy By Europcar
Balice,2,2,197.04,MDAR,Smart ForFour,Car Net
Balice,2,2,197.56,MBMR,Fiat 500,Europcar
Balice,2,2,201.5,CDMR,Seat Leon,Car Net
Balice,2,2,203.03,ECMR,Opel Corsa,Europcar
Balice,2,2,205.88,CDMR,Ford Focus,
Balice,2,2,205.98,CWMR,Opel Astra Estate,Car Net
Balice,2,2,209.07,MBMR,Fiat 500,Green Motion
Balice,2,2,209.58,CXMR,Seat Leon,Express
Balice,2,2,210.44,CWMR,Ford Focus Estate,Keddy By Europcar
Balice,2,2,214.01,EDMR,Citroen C3,Europcar
Balice,2,2,215.52,EDMR,Volkswagen Polo,Green Motion
Balice,2,2,219.43,CDAR,Opel Astra,Keddy By Europcar
Balice,2,2,222.17,CDMR,Volkswagen Golf,Green Motion
Balice,2,2,224.79,IDMR,Toyota Corolla,Car Net
Balice,2,2,229.05,IDMR,Volkswagen Jetta,Green Motion
Balice,2,2,230.47,EXMR,Renault Clio,Europcar
Balice,2,2,235.49,CDAR,Peugeot 308,Car Net
Balice,2,2,236.51,EDMR,Skoda Fabia,Sixt
Balice,2,2,241.46,CDMR,Opel Astra,Europcar
Balice,2,2,248.03,SDMR,Volkswagen Passat,Express
Balice,2,2,252.75,CWMR,Toyota Auris Estate,Europcar
Balice,2,2,255.31,SDMR,Volkswagen Passat,Green Motion
Balice,2,2,260.43,SDAR,Renault Talisman,Express
Balice,2,2,260.43,FDMR,Infiniti Q50,Express
Balice,2,2,267.37,IVMR,Opel Zafira,Express
Balice,2,2,268.66,IDMR,Toyota Corolla,
Balice,2,2,270.76,CDMR,Ford Focus,Sixt
Balice,2,2,279.86,CDAR,Renault Megane,Europcar
Balice,2,2,283.63,CDAR,Opel Astra,
Balice,2,2,283.95,CDMR,Toyota Auris,Enterprise
Balice,2,2,285.21,CDMR,Ford Focus,Carsson
Balice,2,2,287.1,CDMR,Toyota Auris,Alamo
Balice,2,2,292.56,MBMR,Fiat 500,Budget
Balice,2,2,294.36,IFMR,Nissan Qashqai,Car Net
Balice,2,2,297.89,CXMR,Volkswagen Golf,
Balice,2,2,309.18,EDMR,Kia Rio,Budget
Balice,2,2,313.72,CDMR,Ford Focus GPS,Carsson
Balice,2,2,321.13,IFAR,Volkswagen Tiguan,Car Net
Balice,2,2,321.13,SDMR,Mazda 6,Car Net
Balice,2,2,322.43,IFMR,Nissan Qashqai,Express
Balice,2,2,322.43,CVMR,Citroen Berlingo,Express
Balice,2,2,322.78,CWMR,Toyota Auris Estate,Enterprise
Balice,2,2,322.89,ICAR,BMW 1 Series,
Balice,2,2,326.17,CCAR,Volkswagen Golf,
Balice,2,2,326.33,CWMR,Toyota Auris Estate,Alamo
Balice,2,2,326.43,EDAR,Volkswagen Polo,Green Motion
Balice,2,2,329.35,CDAR,Toyota Auris,Enterprise
Balice,2,2,329.81,CWMR,Renault Megane Estate,Carsson
Balice,2,2,331.83,IDAR,Toyota Avensis,Car Net
Balice,2,2,332.03,SWMR,Mazda 6 Estate,Car Net
Balice,2,2,333.06,CDAR,Toyota Auris,Alamo
Balice,2,2,334.35,CDMR,Volkswagen Golf,Rentis
Balice,2,2,336.57,CDAR,Volkswagen Golf,Green Motion
Balice,2,2,343.42,CDMR,Ford Focus,Budget
Balice,2,2,348.11,CWMR,Ford Focus Estate,
Balice,2,2,352.06,CDAR,Opel Astra,Sixt
Balice,2,2,358.27,IDMR,Toyota Corolla,Sixt
Balice,2,2,362.11,MDMR,Smart ForFour,Global Rent a Car
Balice,2,2,368.92,SWAR,Skoda Superb Estate,Car Net
Balice,2,2,386.48,IWMR,Skoda Octavia Estate,
Balice,2,2,395.28,CWMR,Fiat Tipo Estate,Budget
Balice,2,2,401.06,FVMR,Mercedes-Benz Vito,Express
Balice,2,2,401.4,SFAR,Nissan X-Trail,Car Net
Balice,2,2,406.8,SDMR,Volkswagen Passat,
Balice,2,2,408.61,SFMR,Toyota Rav4,Green Motion
Balice,2,2,409.83,IDAR,Volkswagen Jetta,Green Motion
Balice,2,2,409.95,SDAR,Volkswagen Passat,Green Motion
Balice,2,2,410.61,CDMR,Volkswagen Golf,Global Rent a Car
Balice,2,2,419.82,ICAR,BMW 1 Series,Sixt
Balice,2,2,420,CWMR,Ford Focus Estate,Sixt
Balice,2,2,427.15,SDAR,Volkswagen Passat,
Balice,2,2,432.49,IDMR,Toyota Avensis,Enterprise
Balice,2,2,433.23,IDMR,Toyota Avensis,Alamo
Balice,2,2,434.72,IDMR,Toyota Corolla,Rentis
Balice,2,2,442.02,SWAR,Volkswagen Passat Estate,
Balice,2,2,448.66,MDMR,Toyota Aygo,Rentis
Balice,2,2,452.04,IFMR,Audi Q2,
Balice,2,2,458.63,MDAR,Smart ForFour,Global Rent a Car
Balice,2,2,468.14,CDAR,Volkswagen Golf,Rentis
Balice,2,2,468.14,IDAR,Toyota Corolla,Rentis
Balice,2,2,474.17,EDMR,Toyota Yaris,Rentis
Balice,2,2,476.91,IWMR,Skoda Octavia Estate,Sixt
Balice,2,2,479.01,CDAR,Opel Astra,Budget
Balice,2,2,484.4,IDAR,Toyota Avensis,Enterprise
Balice,2,2,485.2,IDAR,Toyota Avensis,Alamo
Balice,2,2,485.25,EWMR,Renault Clio Estate,Global Rent a Car
Balice,2,2,489.87,EWMR,Skoda Fabia Estate,Rentis
Balice,2,2,492.78,IDMR,Volkswagen Jetta,Global Rent a Car
Balice,2,2,501.56,CWMR,Volkswagen Golf Estate,Global Rent a Car
Balice,2,2,508.56,SDMR,Volkswagen Passat GPS,Sixt
Balice,2,2,522.58,CDMR,Ford Focus,Hertz
Balice,2,2,525.82,IWMR,Kia Optima Estate,Sixt
Balice,2,2,527.56,CWMR,Toyota Auris Estate,Rentis
Balice,2,2,533.98,SDAR,Volkswagen Passat,Sixt
Balice,2,2,540.94,SFMR,Volkswagen Tiguan,
Balice,2,2,548.9,IFMR,Kia Sportage,Sixt
Balice,2,2,549.86,SFAR,Volvo XC40,
Balice,2,2,576.85,EDAR,Skoda Fabia,Rentis
Balice,2,2,592.82,IFMR,Nissan Qashqai,Rentis
Balice,2,2,614.91,IVMR,Peugeot 5008 GPS,Carsson
Balice,2,2,635.94,SFMR,Volkswagen Tiguan,Sixt
Balice,2,2,646.32,CFAR,Toyota C-HR,Rentis
Balice,2,2,667.72,IFAR,BMW X1,Sixt
Balice,2,2,669.2,EDAR,Kia Rio,Global Rent a Car
Balice,2,2,719.32,CDAR,Kia Cee'd,Hertz
Balice,2,2,724.47,SFMR,Toyota Rav4,Rentis
Balice,2,2,743.35,IXAR,Toyota Prius,Rentis
Balice,2,2,756.32,SDMR,Toyota Avensis,Budget
Balice,2,2,773.22,CWMR,Volkswagen Golf Estate,Green Motion
Balice,2,2,773.22,CWAR,Volkswagen Golf Estate,Green Motion
Balice,2,2,778.8,IVMR,Volkswagen Touran,Rentis
Balice,2,2,778.8,IWMR,Skoda Octavia Estate,Rentis
Balice,2,2,783.24,CDAR,Volkswagen Golf,Global Rent a Car
Balice,2,2,794.09,IDAR,Toyota C-HR,Budget
Balice,2,2,802.81,PFAR,Mercedes-Benz GLC,Car Net
Balice,2,2,852.73,IDMR,Toyota Avensis,Hertz
Balice,2,2,904.38,FVMR,Renault Trafic,Rentis
Balice,2,2,907.39,IWMR,Toyota Avensis Estate,Budget
Balice,2,2,969.56,SVAR,Seat Alhambra,Hertz
Balice,2,2,1027.41,SDMR,Kia Optima,Global Rent a Car
Balice,2,2,1056.65,IDAR,Toyota Corolla,Global Rent a Car
Balice,2,2,1115.87,CVMR,Citroen C4 Picasso,Green Motion
Balice,2,2,1132.73,SDAR,Opel Insignia,Budget
Balice,2,2,1190.05,IFMR,Kia Sportage,Hertz
Balice,2,2,1347.03,PDAR,Mercedes-Benz C-Class,Hertz
Balice,2,2,1524.83,IFAR,BMW X1,Hertz
Balice,2,2,1536.43,SVAR,Seat Alhambra,Budget
Balice,2,2,1590.63,IWMR,Skoda Octavia Estate,Green Motion
Balice,2,2,1922.56,PDAD,BMW 3 Series,Rentis
Balice,2,2,1994.86,CWAR,Toyota Auris Estate,Global Rent a Car
Balice,2,2,2626.77,IVMR,Volkswagen Touran,Global Rent a Car
Balice,2,2,2662.87,PDAR,BMW 3 Series,Global Rent a Car
Balice,2,2,2692.89,LDAR,Mercedes-Benz E-Class,Global Rent a Car
Balice,2,2,2980.71,SVMR,Ford Tourneo Connect,Global Rent a Car
Balice,2,2,3217.43,LWAR,Mercedes-Benz E-Class Estate,Global Rent a Car
Balice,2,2,3310.76,CFAR,Toyota C-HR,Green Motion
Balice,2,2,3845.06,LDAD,BMW 5 Series,Rentis
Balice,2,2,3845.06,PFAR,Audi Q5,Rentis
Balice,2,2,4075.49,FVMR,Renault Trafic,Global Rent a Car
Balice,2,2,4738.38,FVAR,Citroen SpaceTourer,Global Rent a Car
Balice,2,2,7622.06,IVAR,Volkswagen Touran,Global Rent a Car
Balice,2,2,11271.38,LDMR,BMW 5 Series,Green Motion
Balice,2,2,11271.38,LDAR,BMW 5 Series,Green Motion
Balice,2,2,101.75,MBMR,Fiat 500,Green Motion
Balice,2,2,104.44,EDMR,Volkswagen Polo,Global Rent a Car
Balice,2,2,106.53,EDMR,Volkswagen Polo,Green Motion
Balice,2,2,241.69,MBMR,Fiat 500,
Balice,2,2,260.18,EDMR,Ford Fiesta,Express
Balice,2,2,260.18,CXMR,Seat Leon,Express
Balice,2,2,281.01,CDMR,Opel Astra,Express
Balice,2,2,293.77,EDMR,Seat Ibiza,Panek
Balice,2,2,309.47,CDMR,Ford Focus,Thrifty
Balice,2,2,317.27,IDMR,Toyota Corolla,Panek
Balice,2,2,317.74,MBMR,Fiat 500,Sixt
Balice,2,2,319.77,MBMR,Fiat 500,Keddy By Europcar
Balice,2,2,330.76,ECMR,Opel Corsa,Keddy By Europcar
Balice,2,2,346.55,CDMR,Volkswagen Golf,Green Motion
Balice,2,2,347.94,EDMR,Skoda Fabia,
Balice,2,2,348.76,MDMR,Toyota Aygo,Enterprise
Balice,2,2,352.55,MDMR,Toyota Aygo,Alamo
Balice,2,2,352.86,EDMR,Opel Corsa,Keddy By Europcar
Balice,2,2,353.28,EDAR,Volkswagen Polo,Green Motion
Balice,2,2,355.92,EDMR,Toyota Yaris,Enterprise
Balice,2,2,357.23,IDMR,Volkswagen Jetta,Green Motion
Balice,2,2,357.66,SDMR,Volkswagen Passat,Express
Balice,2,2,359.68,EDMR,Toyota Yaris,Alamo
Balice,2,2,364.19,CDAR,Volkswagen Golf,Green Motion
Balice,2,2,368.25,SDMR,Volkswagen Passat,Green Motion
Balice,2,2,368.49,IWMR,Skoda Octavia Estate,Panek
Balice,2,2,375.45,IDAR,Volkswagen Jetta,Green Motion
Balice,2,2,376.01,CDAR,Toyota Corolla,Panek
Balice,2,2,385.89,EDMR,Seat Ibiza,Car Net
Balice,2,2,385.89,MBMR,Kia Picanto,Car Net
Balice,2,2,396.91,MDAR,Smart ForFour,Car Net
Balice,2,2,396.91,CMMR,Renault Captur,Keddy By Europcar
Balice,2,2,396.91,CDMR,Ford Focus,Keddy By Europcar
Balice,2,2,406.95,MBMR,Fiat 500,Europcar
Balice,2,2,407.93,CDMR,Seat Leon,Car Net
Balice,2,2,411.6,CWMR,Opel Astra Estate,Car Net
Balice,2,2,418.26,ECMR,Opel Corsa,Europcar
Balice,2,2,422.48,CWMR,Ford Focus Estate,Keddy By Europcar
Balice,2,2,427.64,CDMR,Ford Focus,
Balice,2,2,440.92,EDMR,Citroen C3,Europcar
Balice,2,2,446.53,IFMR,Nissan Qashqai,Panek
Balice,2,2,447.67,CFMR,Toyota C-HR,Green Motion
Balice,2,2,450.65,IVMR,Opel Zafira,Express
Balice,2,2,451.96,CDAR,Opel Astra,Keddy By Europcar
Balice,2,2,452.04,IDMR,Toyota Corolla,Car Net
Balice,2,2,457.87,CDMR,Volkswagen Golf,Global Rent a Car
Balice,2,2,459.84,SDAR,Renault Talisman,Express
Balice,2,2,469.87,MDMR,Smart ForFour,Global Rent a Car
Balice,2,2,474.83,EXMR,Renault Clio,Europcar
Balice,2,2,485.11,CDAR,Peugeot 308,Car Net
Balice,2,2,485.39,FDMR,Infiniti Q50,Express
Balice,2,2,487.24,EDMR,Skoda Fabia,Sixt
Balice,2,2,497.11,CDMR,Toyota Auris,Enterprise
Balice,2,2,497.33,CDMR,Opel Astra,Europcar
Balice,2,2,502.65,CDMR,Toyota Auris,Alamo
Balice,2,2,510.93,IFMR,Nissan Qashqai,Express
Balice,2,2,510.93,CVMR,Citroen Berlingo,Express
Balice,2,2,520.69,CWMR,Toyota Auris Estate,Europcar
Balice,2,2,553.41,IDMR,Toyota Corolla,
Balice,2,2,557.77,CDMR,Ford Focus,Sixt
Balice,2,2,573.32,IFMR,Nissan Qashqai,Car Net
Balice,2,2,576.46,CDAR,Renault Megane,Europcar
Balice,2,2,576.82,CDAR,Toyota Auris,Enterprise
Balice,2,2,583.11,CDAR,Toyota Auris,Alamo
Balice,2,2,584.13,MBMR,Fiat 500,Budget
Balice,2,2,587.53,CDMR,Ford Focus,Carsson
Balice,2,2,587.94,CDAR,Opel Astra,
Balice,2,2,613.67,CXMR,Volkswagen Golf,
Balice,2,2,618.37,EDMR,Kia Rio,Budget
Balice,2,2,633.66,MDMR,Toyota Aygo,Rentis
Balice,2,2,646.28,CDMR,Ford Focus GPS,Carsson
Balice,2,2,650.49,IFAR,Volkswagen Tiguan,Car Net
Balice,2,2,660.18,EDMR,Toyota Yaris,Rentis
Balice,2,2,661.52,SDMR,Mazda 6,Car Net
Balice,2,2,664.83,CWMR,Toyota Auris Estate,Enterprise
Balice,2,2,665.15,ICAR,BMW 1 Series,
Balice,2,2,665.82,CDMR,Volkswagen Golf,Rentis
Balice,2,2,672.17,CWMR,Toyota Auris Estate,Alamo
Balice,2,2,675.71,CCAR,Volkswagen Golf,
Balice,2,2,675.95,FVMR,Mercedes-Benz Vito,Express
Balice,2,2,679.42,CWMR,Renault Megane Estate,Carsson
Balice,2,2,682.38,SWMR,Mazda 6 Estate,Car Net
Balice,2,2,683.57,IDAR,Toyota Avensis,Car Net
Balice,2,2,685.8,EWMR,Renault Clio Estate,Global Rent a Car
Balice,2,2,687.85,CDMR,Ford Focus,Budget
Balice,2,2,698.6,EWMR,Skoda Fabia Estate,Rentis
Balice,2,2,711.71,CDAR,Volkswagen Golf,Rentis
Balice,2,2,711.71,IDAR,Toyota Corolla,Rentis
Balice,2,2,718.92,CWMR,Ford Focus Estate,
Balice,2,2,720.28,CWMR,Volkswagen Golf Estate,Global Rent a Car
Balice,2,2,725.23,CDAR,Opel Astra,Sixt
Balice,2,2,727.33,IDMR,Volkswagen Jetta,Global Rent a Car
Balice,2,2,736.53,SWAR,Skoda Superb Estate,Car Net
Balice,2,2,737.96,IDMR,Toyota Corolla,Sixt
Balice,2,2,763.79,PDAR,Volvo S90,Panek
Balice,2,2,790.58,CWMR,Fiat Tipo Estate,Budget
Balice,2,2,795.72,IWMR,Skoda Octavia Estate,
Balice,2,2,802.06,CWMR,Toyota Auris Estate,Rentis
Balice,2,2,826.89,SFAR,Nissan X-Trail,Car Net
Balice,2,2,830.33,MDAR,Smart ForFour,Global Rent a Car
Balice,2,2,838.08,SDMR,Volkswagen Passat,
Balice,2,2,841.15,IFMR,Nissan Qashqai,Rentis
Balice,2,2,863.15,CWMR,Ford Focus Estate,Sixt
Balice,2,2,864.77,ICAR,BMW 1 Series,Sixt
Balice,2,2,865.46,IDMR,Toyota Corolla,Rentis
Balice,2,2,879.98,SDAR,Volkswagen Passat,
Balice,2,2,888.36,SDAR,Volkswagen Passat,Green Motion
Balice,2,2,888.38,CDMR,Ford Focus,Hertz
Balice,2,2,908.47,SWAR,Volkswagen Passat Estate,
Balice,2,2,931.23,IFMR,Audi Q2,
Balice,2,2,957.04,CDAR,Opel Astra,Budget
Balice,2,2,980.12,IWMR,Skoda Octavia Estate,Sixt
Balice,2,2,1047.6,SDMR,Volkswagen Passat GPS,Sixt
Balice,2,2,1056.04,EDAR,Skoda Fabia,Rentis
Balice,2,2,1079.99,IDMR,Toyota Avensis,Enterprise
Balice,2,2,1080.59,IWMR,Kia Optima Estate,Sixt
Balice,2,2,1088.29,SFMR,Toyota Rav4,Green Motion
Balice,2,2,1099.93,SDAR,Volkswagen Passat,Sixt
Balice,2,2,1119.21,SFMR,Volkswagen Tiguan,
Balice,2,2,1126.58,IDMR,Toyota Avensis,Alamo
Balice,2,2,1130.69,IFMR,Kia Sportage,Sixt
Balice,2,2,1132.72,SFAR,Volvo XC40,
Balice,2,2,1151.54,FVMR,Seat Alhambra,Panek
Balice,2,2,1193.85,CFAR,Toyota C-HR,Rentis
Balice,2,2,1206.88,EDAR,Kia Rio,Global Rent a Car
Balice,2,2,1209.66,IDAR,Toyota Avensis,Enterprise
Balice,2,2,1222.84,CDAR,Kia Cee'd,Hertz
Balice,2,2,1261.8,IDAR,Toyota Avensis,Alamo
Balice,2,2,1266.7,IVMR,Peugeot 5008 GPS,Carsson
Balice,2,2,1310.01,SFMR,Volkswagen Tiguan,Sixt
Balice,2,2,1372.91,IXAR,Toyota Prius,Rentis
Balice,2,2,1375.5,IFAR,BMW X1,Sixt
Balice,2,2,1377.54,SFMR,Toyota Rav4,Rentis
Balice,2,2,1412.11,CDAR,Volkswagen Golf,Global Rent a Car
Balice,2,2,1423.17,FVMR,Renault Trafic,Rentis
Balice,2,2,1448.91,IVMR,Volkswagen Touran,Rentis
Balice,2,2,1448.91,IWMR,Skoda Octavia Estate,Rentis
Balice,2,2,1449.63,IDMR,Toyota Avensis,Hertz
Balice,2,2,1512.67,SDMR,Toyota Avensis,Budget
Balice,2,2,1540.6,IDAR,Toyota Corolla,Global Rent a Car
Balice,2,2,1588.2,IDAR,Toyota C-HR,Budget
Balice,2,2,1592.84,CWMR,Volkswagen Golf Estate,Green Motion
Balice,2,2,1592.84,CWAR,Volkswagen Golf Estate,Green Motion
Balice,2,2,1633.57,SDMR,Kia Optima,Global Rent a Car
Balice,2,2,1648.25,SVAR,Seat Alhambra,Hertz
Balice,2,2,1653.78,PFAR,Mercedes-Benz GLC,Car Net
Balice,2,2,1814.8,IWMR,Toyota Avensis Estate,Budget
Balice,2,2,2023.08,IFMR,Kia Sportage,Hertz
Balice,2,2,2264.47,SDAR,Opel Insignia,Budget
Balice,2,2,2289.96,PDAR,Mercedes-Benz C-Class,Hertz
Balice,2,2,2298.69,CVMR,Citroen C4 Picasso,Green Motion
Balice,2,2,2592.23,IFAR,BMW X1,Hertz
Balice,2,2,2730.55,IWMR,Skoda Octavia Estate,Green Motion
Balice,2,2,3014.84,CWAR,Toyota Auris Estate,Global Rent a Car
Balice,2,2,3073.85,SVAR,Seat Alhambra,Budget
Balice,2,2,3154.77,IVMR,Volkswagen Touran,Global Rent a Car
Balice,2,2,3564.53,PDAD,BMW 3 Series,Rentis
Balice,2,2,4204.89,PDAR,BMW 3 Series,Global Rent a Car
Balice,2,2,4262.52,LDAR,Mercedes-Benz E-Class,Global Rent a Car
Balice,2,2,5110.12,LWAR,Mercedes-Benz E-Class Estate,Global Rent a Car
Balice,2,2,5330.35,SVMR,Ford Tourneo Connect,Global Rent a Car
Balice,2,2,5493.87,IVAR,Volkswagen Touran,Global Rent a Car
Balice,2,2,6115.33,CFAR,Toyota C-HR,Green Motion
Balice,2,2,6578.94,FVMR,Renault Trafic,Global Rent a Car
Balice,2,2,7128.72,LDAD,BMW 5 Series,Rentis
Balice,2,2,7128.72,PFAR,Audi Q5,Rentis
Balice,2,2,7663.46,FVAR,Citroen SpaceTourer,Global Rent a Car
Balice,2,2,17414.28,LDMR,BMW 5 Series,Green Motion
Balice,2,2,17414.28,LDAR,BMW 5 Series,Green Motion